Removed Pin From Net: NetName=VCC Pin=J20-1
Removed Pin From Net: NetName=VCC Pin=J21-1
Removed Pin From Net: NetName=GND Pin=J22-1
Removed Pin From Net: NetName=GND Pin=J23-1
Added Component: Designator=R4(ECE-RESC2012-0805SM)
Add component. Clean all parameters for all variants
Add component (AddParameter): Name = "Assembly Method"; Value = "Surface Mount"; VariantName = "[No Variations]"
Add component (AddParameter): Name = "Category"; Value = "Resistor"; VariantName = "[No Variations]"
Add component (AddParameter): Name = "Component Type"; Value = "RES-2012-0R"; VariantName = "[No Variations]"
Add component (AddParameter): Name = "Item Type"; Value = "Item"; VariantName = "[No Variations]"
Add component (AddParameter): Name = "Path"; Value = "ece/ts/Lists/Stock Inventory"; VariantName = "[No Variations]"
Add component (AddParameter): Name = "Size/Package"; Value = "2012"; VariantName = "[No Variations]"
Add component (AddParameter): Name = "Status"; Value = "Active"; VariantName = "[No Variations]"
Add component (AddParameter): Name = "UoA Stock#"; Value = "RES000501"; VariantName = "[No Variations]"
Add component (AddParameter): Name = "Value"; Value = "330R"; VariantName = "[No Variations]"
Add component (AddParameter): Name = "Voltage/Current"; Value = "1/8W"; VariantName = "[No Variations]"
Added Component: Designator=R5(ECE-RESC2012-0805SM)
Add component. Clean all parameters for all variants
Add component (AddParameter): Name = "Assembly Method"; Value = "Surface Mount"; VariantName = "[No Variations]"
Add component (AddParameter): Name = "Category"; Value = "Resistor"; VariantName = "[No Variations]"
Add component (AddParameter): Name = "Component Type"; Value = "RES-2012-0R"; VariantName = "[No Variations]"
Add component (AddParameter): Name = "Item Type"; Value = "Item"; VariantName = "[No Variations]"
Add component (AddParameter): Name = "Path"; Value = "ece/ts/Lists/Stock Inventory"; VariantName = "[No Variations]"
Add component (AddParameter): Name = "Size/Package"; Value = "2012"; VariantName = "[No Variations]"
Add component (AddParameter): Name = "Status"; Value = "Active"; VariantName = "[No Variations]"
Add component (AddParameter): Name = "UoA Stock#"; Value = "RES000501"; VariantName = "[No Variations]"
Add component (AddParameter): Name = "Value"; Value = "330R"; VariantName = "[No Variations]"
Add component (AddParameter): Name = "Voltage/Current"; Value = "1/8W"; VariantName = "[No Variations]"
Added Component: Designator=R6(ECE-RESC2012-0805SM)
Add component. Clean all parameters for all variants
Add component (AddParameter): Name = "Assembly Method"; Value = "Surface Mount"; VariantName = "[No Variations]"
Add component (AddParameter): Name = "Category"; Value = "Resistor"; VariantName = "[No Variations]"
Add component (AddParameter): Name = "Component Type"; Value = "RES-2012-0R"; VariantName = "[No Variations]"
Add component (AddParameter): Name = "Item Type"; Value = "Item"; VariantName = "[No Variations]"
Add component (AddParameter): Name = "Path"; Value = "ece/ts/Lists/Stock Inventory"; VariantName = "[No Variations]"
Add component (AddParameter): Name = "Size/Package"; Value = "2012"; VariantName = "[No Variations]"
Add component (AddParameter): Name = "Status"; Value = "Active"; VariantName = "[No Variations]"
Add component (AddParameter): Name = "UoA Stock#"; Value = "RES000501"; VariantName = "[No Variations]"
Add component (AddParameter): Name = "Value"; Value = "330R"; VariantName = "[No Variations]"
Add component (AddParameter): Name = "Voltage/Current"; Value = "1/8W"; VariantName = "[No Variations]"
Added Component: Designator=S1(SW-SPDT)
Add component. Clean all parameters for all variants
Added Component: Designator=snsr1_R?(ECE-RESA0.4TH)
Add component. Clean all parameters for all variants
Add component (AddParameter): Name = "Assembly Method"; Value = "Through hole"; VariantName = "[No Variations]"
Add component (AddParameter): Name = "Category"; Value = "Resistor"; VariantName = "[No Variations]"
Add component (AddParameter): Name = "Component Type"; Value = "NA"; VariantName = "[No Variations]"
Add component (AddParameter): Name = "Item Type"; Value = "Item"; VariantName = "[No Variations]"
Add component (AddParameter): Name = "Path"; Value = "ece/ts/Lists/Stock Inventory"; VariantName = "[No Variations]"
Add component (AddParameter): Name = "Size/Package"; Value = "Axial 10mm"; VariantName = "[No Variations]"
Add component (AddParameter): Name = "Status"; Value = "Active"; VariantName = "[No Variations]"
Add component (AddParameter): Name = "Supplier1"; Value = "Active components"; VariantName = "[No Variations]"
Add component (AddParameter): Name = "Supplier1-PN"; Value = "T184028"; VariantName = "[No Variations]"
Add component (AddParameter): Name = "UoA Stock#"; Value = "RES000067"; VariantName = "[No Variations]"
Add component (AddParameter): Name = "Value"; Value = "330K"; VariantName = "[No Variations]"
Add component (AddParameter): Name = "Voltage/Current"; Value = "0.6W"; VariantName = "[No Variations]"
Added Component: Designator=snsr3_R?(ECE-RESA0.4TH)
Add component. Clean all parameters for all variants
Add component (AddParameter): Name = "Assembly Method"; Value = "Through hole"; VariantName = "[No Variations]"
Add component (AddParameter): Name = "Category"; Value = "Resistor"; VariantName = "[No Variations]"
Add component (AddParameter): Name = "Component Type"; Value = "NA"; VariantName = "[No Variations]"
Add component (AddParameter): Name = "Item Type"; Value = "Item"; VariantName = "[No Variations]"
Add component (AddParameter): Name = "Path"; Value = "ece/ts/Lists/Stock Inventory"; VariantName = "[No Variations]"
Add component (AddParameter): Name = "Size/Package"; Value = "Axial 10mm"; VariantName = "[No Variations]"
Add component (AddParameter): Name = "Status"; Value = "Active"; VariantName = "[No Variations]"
Add component (AddParameter): Name = "Supplier1"; Value = "Active components"; VariantName = "[No Variations]"
Add component (AddParameter): Name = "Supplier1-PN"; Value = "T184028"; VariantName = "[No Variations]"
Add component (AddParameter): Name = "UoA Stock#"; Value = "RES000067"; VariantName = "[No Variations]"
Add component (AddParameter): Name = "Value"; Value = "330K"; VariantName = "[No Variations]"
Add component (AddParameter): Name = "Voltage/Current"; Value = "0.6W"; VariantName = "[No Variations]"
Added Pin To Net: NetName=VadcBatt Pin=J10-5
Added Pin To Net: NetName=GND Pin=R4-2
Added Pin To Net: NetName=GND Pin=R5-2
Added Pin To Net: NetName=GND Pin=R6-2
Added Pin To Net: NetName=GND Pin=S1-1
Added Pin To Net: NetName=LEDv Pin=J20-3
Added Pin To Net: NetName=LEDv Pin=S1-2
Added Net: Name=LEDv
Added Pin To Net: NetName=NetD1_A Pin=D1-A
Added Pin To Net: NetName=NetD1_A Pin=D2-A
Added Pin To Net: NetName=NetD1_A Pin=D3-A
Added Pin To Net: NetName=NetD1_A Pin=S1-3
Added Net: Name=NetD1_A
Added Pin To Net: NetName=NetD1_K Pin=D1-K
Added Pin To Net: NetName=NetD1_K Pin=R4-1
Added Net: Name=NetD1_K
Added Pin To Net: NetName=NetD2_K Pin=D2-K
Added Pin To Net: NetName=NetD2_K Pin=R5-1
Added Net: Name=NetD2_K
Added Pin To Net: NetName=NetD3_K Pin=D3-K
Added Pin To Net: NetName=NetD3_K Pin=R6-1
Added Net: Name=NetD3_K
Added Member To Class: ClassName=cs301_3toplevel Member=Component R4 0R
Added Member To Class: ClassName=cs301_3toplevel Member=Component R5 0R
Added Member To Class: ClassName=cs301_3toplevel Member=Component R6 0R
Added Member To Class: ClassName=cs301_3toplevel Member=Component S1 SW-SPDT
Added Member To Class: ClassName=snsr1 Member=Component snsr1_R? (R?) 330K
Added Member To Class: ClassName=snsr3 Member=Component snsr3_R? (R?) 330K
Added Room: Name=cs301_3toplevel
